XGBoost for Instacart
…
## [1] 49688     4

arrange {dplyr}: arrange(user_id, order_number, product_id) sorts orders_products in ascending order - first according to user_id - second according to order_number - third accorindg to product_id

mutate(product_time = row_number()): i.e.row_number(): equivalent to rank(ties.method = first) create a variable that tracks how many times each product_id was ordered by each user_id

prd_tmp <- orders_products %>%
  arrange(user_id, order_number, product_id) %>%
  group_by(user_id, product_id) %>%
  mutate(product_time = row_number()) %>%
  ungroup()
head( prd_tmp, n = 40 )

## # A tibble: 40 x 11
##    order_id user_id eval_set order_number order_dow order_hour_of_day
##       <int>   <int>   <fctr>        <int>     <int>             <int>
##  1  2539329       1    prior            1         2                 8
##  2  2539329       1    prior            1         2                 8
##  3  2539329       1    prior            1         2                 8
##  4  2539329       1    prior            1         2                 8
##  5  2539329       1    prior            1         2                 8
##  6  2398795       1    prior            2         3                 7
##  7  2398795       1    prior            2         3                 7
##  8  2398795       1    prior            2         3                 7
##  9  2398795       1    prior            2         3                 7
## 10  2398795       1    prior            2         3                 7
## # ... with 30 more rows, and 5 more variables:
## #   days_since_prior_order <dbl>, product_id <int>,
## #   add_to_cart_order <int>, reordered <int>, product_time <int>

prd_tmp2 = head( prd_tmp, n = 140 )
prd_tmp %>% filter( product_id == 196 ) %>% select(user_id, product_id, product_time) %>% head( n = 30 )

## # A tibble: 30 x 3
##    user_id product_id product_time
##      <int>      <int>        <int>
##  1       1        196            1
##  2       1        196            2
##  3       1        196            3
##  4       1        196            4
##  5       1        196            5
##  6       1        196            6
##  7       1        196            7
##  8       1        196            8
##  9       1        196            9
## 10       1        196           10
## # ... with 20 more rows
…
